…
    ## `summarise()` has grouped output by 'phase', 'prime_type', 'prime_val'. You can
    ## override using the `.groups` argument.

``` r
for (i in 1:nrow(brutos2)){
  if(brutos2$prime_type[i] == "OTHER"){
    brutos2$soma[i] = brutos2$soma[i]/5
  }
}

brutos2
```

    ## # A tibble: 40 × 5
    ## # Groups:   phase, prime_type, prime_val [8]
    ##    phase        prime_type prime_val target     soma
    ##    <chr>        <chr>      <chr>     <chr>     <dbl>
    ##  1 menstruation OTHER      negative  falhada    116.
    ##  2 menstruation OTHER      negative  feia       117.
    ##  3 menstruation OTHER      negative  insegura   121.
    ##  4 menstruation OTHER      negative  inútil     132 
    ##  5 menstruation OTHER      negative  triste     123.
    ##  6 menstruation OTHER      positive  alegre     150.
    ##  7 menstruation OTHER      positive  capaz      138.
    ##  8 menstruation OTHER      positive  confiante  141.
    ##  9 menstruation OTHER      positive  genial     134 
    ## 10 menstruation OTHER      positive  linda      166 
    ## # … with 30 more rows
…
